…
```
# A tibble: 1 × 1
      n
  <int>
1   702
```

```
# A tibble: 702 × 7
      id wave_1 wave_2 wave_3 wave_4 wave_5 wave_NA
*  <dbl>  <chr>  <chr>  <chr>  <chr>  <chr>   <chr>
1      1      1      .      .      .      .       .
2      2      1      2      .      .      .       .
3      3      1      2      3      4      5       .
4      4      .      .      .      .      .       .
5      5      1      2      3      4      .       .
6      6      1      2      3      4      5       .
7      7      1      2      .      .      .       .
8      8      1      .      .      .      .       .
9      9      1      .      .      .      .       .
10    10      1      .      .      .      .       .
# ... with 692 more rows
```
…
